{
    "results": [{
        "park_Id": "10",
        "privateCar": [{
            "vacancy_type": "A",
            "vacancy": 93,
            "lastupdate": "2019-04-30 12:06:26"
        }]
    }, {
        "park_Id": "12",
        "privateCar": [{
            "vacancy_type": "A",
            "vacancyEV": 6,
            "vacancyDIS": 6,
            "vacancy": 140,
            "lastupdate": "2019-04-30 11:15:06"
        }],
        "LGV": [{
            "vacancy_type": "A",
            "vacancy": 0,
            "lastupdate": "2019-04-30 11:15:06"
        }],
        "HGV": [{
            "vacancy_type": "A",
            "vacancy": 0,
            "lastupdate": "2019-04-30 11:15:06"
        }],
        "motorCycle": [{
            "vacancy_type": "A",
            "vacancy": 0,
            "lastupdate": "2019-04-30 11:15:06"
        }]
    }, {
        "park_Id": "27",
        "privateCar": [{
            "vacancy_type": "A",
            "vacancyDIS": 1,
            "vacancy": 10,
            "lastupdate": "2019-04-30 11:42:45"
        }],
        "motorCycle": [{
            "vacancy_type": "A",
            "vacancy": 2,
            "lastupdate": "2019-04-30 11:42:45"
        }]
    }, {
        "park_Id": "30",
        "privateCar": [{
            "vacancy_type": "A",
            "vacancy": 12,
            "lastupdate": "2019-04-30 12:06:10"
        }]
    }, {
        "park_Id": "31",
        "privateCar": [{
            "vacancy_type": "A",
            "vacancy": 53,
            "lastupdate": "2019-04-30 12:06:10"
        }]
    }, {
        "park_Id": "32",
        "privateCar": [{
            "vacancy_type": "A",
            "vacancy": 6,
            "lastupdate": "2019-04-30 12:05:10"
        }]
    }, {
        "park_Id": "36",
        "privateCar": [{
            "vacancy_type": "A",
            "vacancyEV": 3,
            "vacancyDIS": 1,
            "vacancy": 308,
            "lastupdate": "2019-04-30 12:06:14"
        }]
    }, {
        "park_Id": "37",
        "privateCar": [{
            "vacancy_type": "A",
            "vacancy": 11,
            "lastupdate": "2019-04-30 12:00:09"
        }]
    }, {
        "park_Id": "38",
        "privateCar": [{
            "vacancy_type": "A",
            "vacancyEV": 4,
            "vacancyDIS": 3,
            "vacancy": 120,
            "lastupdate": "2019-04-30 10:17:12"
        }],
        "HGV": [{
            "vacancy_type": "A",
            "vacancy": 30,
            "lastupdate": "2019-04-30 10:17:12"
        }]
    }, {
        "park_Id": "39",
        "privateCar": [{
            "vacancy_type": "A",
            "vacancy": 0,
            "lastupdate": "2019-04-30 12:00:33"
        }]
    }, {
        "park_Id": "49",
        "privateCar": [{
            "vacancy_type": "A",
            "vacancyDIS": 0,
            "vacancy": 30,
            "lastupdate": "2019-04-30 12:06:27"
        }],
        "LGV": [{
            "vacancy_type": "A",
            "vacancy": 3,
            "lastupdate": "2019-04-30 12:06:27"
        }],
        "HGV": [{
            "vacancy_type": "A",
            "vacancy": 0,
            "lastupdate": "2019-04-30 12:06:27"
        }]
    }, {
        "park_Id": "50",
        "privateCar": [{
            "vacancy_type": "A",
            "vacancy": 193,
            "lastupdate": "2019-04-30 12:06:20"
        }]
    }, {
        "park_Id": "51",
        "privateCar": [{
            "vacancy_type": "A",
            "vacancy": 42,
            "lastupdate": "2019-04-30 12:02:50"
        }]
    }, {
        "park_Id": "52",
        "privateCar": [{
            "vacancy_type": "A",
            "vacancy": 29,
            "lastupdate": "2019-04-30 12:06:20"
        }]
    }, {
        "park_Id": "53",
        "privateCar": [{
            "vacancy_type": "A",
            "vacancy": 35,
            "lastupdate": "2019-04-30 12:02:50"
        }]
    }, {
        "park_Id": "59",
        "privateCar": [{
            "vacancy_type": "A",
            "vacancy": 0,
            "lastupdate": "2019-04-30 12:06:23"
        }]
    }, {
        "park_Id": "73",
        "privateCar": [{
            "vacancy_type": "A",
            "vacancy": 0,
            "lastupdate": "2019-04-30 10:35:40"
        }]
    }, {
        "park_Id": "74",
        "privateCar": [{
            "vacancy_type": "A",
            "vacancyEV": 0,
            "vacancyDIS": 0,
            "vacancy": 14,
            "lastupdate": "2019-04-30 12:06:19"
        }],
        "LGV": [{
            "vacancy_type": "A",
            "vacancyUNL": 0,
            "vacancy": 0,
            "lastupdate": "2019-04-30 12:06:19"
        }],
        "HGV": [{
            "vacancy_type": "A",
            "vacancyUNL": 0,
            "vacancy": 0,
            "lastupdate": "2019-04-30 12:06:19"
        }],
        "motorCycle": [{
            "vacancy_type": "A",
            "vacancyEV": 0,
            "vacancy": 0,
            "lastupdate": "2019-04-30 12:06:19"
        }]
    }, {
        "park_Id": "75",
        "privateCar": [{
            "vacancy_type": "A",
            "vacancy": 11,
            "lastupdate": "2019-04-30 12:06:20"
        }]
    }, {
        "park_Id": "78",
        "privateCar": [{
            "vacancy_type": "A",
            "vacancyEV": 0,
            "vacancy": 4,
            "lastupdate": "2019-04-30 11:50:48"
        }],
        "HGV": [{
            "vacancy_type": "A",
            "vacancy": 1,
            "lastupdate": "2019-04-30 11:50:48"
        }]
    }, {
        "park_Id": "tdc6p10",
        "privateCar": [{
            "vacancy_type": "B",
            "vacancy": "1",
            "lastupdate": "2019-04-30 10:07:22",
            "category": "HOURLY"
        }]
    }, {
        "park_Id": "tdc6p11",
        "privateCar": [{
            "vacancy_type": "B",
            "vacancy": "0",
            "lastupdate": "2019-04-30 12:00:19",
            "category": "HOURLY"
        }]
    }, {
        "park_Id": "tdc6p12",
        "privateCar": [{
            "vacancy_type": "B",
            "vacancy": "1",
            "lastupdate": "2019-04-30 11:00:19",
            "category": "HOURLY"
        }]
    }, {
        "park_Id": "tdc6p8",
        "privateCar": [{
            "vacancy_type": "B",
            "vacancy": "1",
            "lastupdate": "2019-04-30 12:00:43",
            "category": "HOURLY"
        }]
    }, {
        "park_Id": "tdc6p9",
        "privateCar": [{
            "vacancy_type": "B",
            "vacancy": "0",
            "lastupdate": "2019-04-30 12:00:28",
            "category": "HOURLY"
        }]
    }, {
        "park_Id": "tdcp1",
        "privateCar": [{
            "vacancy_type": "B",
            "vacancy": "1",
            "lastupdate": "2019-04-30 12:00:22",
            "category": "HOURLY"
        }]
    }, {
        "park_Id": "tdcp10",
        "privateCar": [{
            "vacancy_type": "B",
            "vacancy": "1",
            "lastupdate": "2019-04-30 11:55:05",
            "category": "HOURLY"
        }]
    }, {
        "park_Id": "tdcp11",
        "privateCar": [{
            "vacancy_type": "B",
            "vacancy": "0",
            "lastupdate": "2019-04-30 11:57:00",
            "category": "HOURLY"
        }]
    }, {
        "park_Id": "tdcp12",
        "privateCar": [{
            "vacancy_type": "A",
            "vacancy": "1",
            "lastupdate": "2019-04-30 12:05:01",
            "category": "HOURLY"
        }]
    }, {
        "park_Id": "tdcp2",
        "privateCar": [{
            "vacancy_type": "B",
            "vacancy": "1",
            "lastupdate": "2019-04-30 11:55:05",
            "category": "HOURLY"
        }]
    }, {
        "park_Id": "tdcp3",
        "privateCar": [{
            "vacancy_type": "B",
            "vacancy": "0",
            "lastupdate": "2019-04-30 12:00:13",
            "category": "HOURLY"
        }]
    }, {
        "park_Id": "tdcp5",
        "privateCar": [{
            "vacancy_type": "B",
            "vacancy": "0",
            "lastupdate": "2019-04-30 12:00:08",
            "category": "HOURLY"
        }]
    }, {
        "park_Id": "tdcp6",
        "privateCar": [{
            "vacancy_type": "B",
            "vacancy": "1",
            "lastupdate": "2019-04-30 11:55:32",
            "category": "HOURLY"
        }]
    }, {
        "park_Id": "tdcp7",
        "privateCar": [{
            "vacancy_type": "B",
            "vacancy": "1",
            "lastupdate": "2019-04-30 11:55:27",
            "category": "HOURLY"
        }]
    }, {
        "park_Id": "tdcp8",
        "privateCar": [{
            "vacancy_type": "B",
            "vacancy": "1",
            "lastupdate": "2019-04-30 12:00:44",
            "category": "HOURLY"
        }]
    }, {
        "park_Id": "tdcp9",
        "privateCar": [{
            "vacancy_type": "B",
            "vacancy": "1",
            "lastupdate": "2019-04-30 12:00:12",
            "category": "HOURLY"
        }]
    }, {
        "park_Id": "tdc5p1",
        "privateCar": [{
            "vacancy_type": "B",
            "vacancy": "1",
            "lastupdate": "2019-04-30 12:00:01",
            "category": "HOURLY"
        }]
    }, {
        "park_Id": "tdc5p3",
        "privateCar": [{
            "vacancy_type": "B",
            "vacancy": "1",
            "lastupdate": "2019-04-30 12:00:01",
            "category": "HOURLY"
        }]
    }, {
        "park_Id": "tdc5p4",
        "privateCar": [{
            "vacancy_type": "B",
            "vacancy": "1",
            "lastupdate": "2019-04-30 12:00:01",
            "category": "HOURLY"
        }]
    }, {
        "park_Id": "tdc17p1",
        "privateCar": [{
            "vacancy_type": "A",
            "vacancy": "51",
            "lastupdate": "2019-04-30 12:05:01",
            "category": "HOURLY"
        }]
    }, {
        "park_Id": "tdc1p5",
        "privateCar": [{
            "vacancy_type": "A",
            "vacancy": -1,
            "lastupdate": "2019-04-30 12:05:02",
            "category": "HOURLY"
        }]
    }, {
        "park_Id": "tdc1p4",
        "privateCar": [{
            "vacancy_type": "A",
            "vacancy": -1,
            "lastupdate": "2019-04-30 12:05:02",
            "category": "HOURLY"
        }]
    }, {
        "park_Id": "tdc1p3",
        "privateCar": [{
            "vacancy_type": "A",
            "vacancy": -1,
            "lastupdate": "2019-04-30 12:05:02",
            "category": "HOURLY"
        }]
    }, {
        "park_Id": "tdc1p2",
        "privateCar": [{
            "vacancy_type": "A",
            "vacancy": -1,
            "lastupdate": "2019-04-30 12:05:02",
            "category": "HOURLY"
        }]
    }, {
        "park_Id": "tdc1p1",
        "privateCar": [{
            "vacancy_type": "A",
            "vacancy": -1,
            "lastupdate": "2019-04-30 12:05:02",
            "category": "HOURLY"
        }]
    }, {
        "park_Id": "tdc17p3",
        "privateCar": [{
            "vacancy_type": "A",
            "vacancy": "18",
            "lastupdate": "2019-04-30 11:59:41",
            "category": "HOURLY"
        }]
    }, {
        "park_Id": "tdc17p2",
        "privateCar": [{
            "vacancy_type": "A",
            "vacancy": "186",
            "lastupdate": "2019-04-30 12:00:05",
            "category": "HOURLY"
        }]
    }, {
        "park_Id": "tdc14p1004",
        "privateCar": [{
            "vacancy_type": "B",
            "vacancy": "1",
            "lastupdate": "2019-04-30 12:04:27",
            "category": "HOURLY"
        }]
    }, {
        "park_Id": "tdc14p1005",
        "privateCar": [{
            "vacancy_type": "B",
            "vacancy": "1",
            "lastupdate": "2019-04-30 12:04:27",
            "category": "HOURLY"
        }]
    }, {
        "park_Id": "tdc14p1006",
        "privateCar": [{
            "vacancy_type": "B",
            "vacancy": "1",
            "lastupdate": "2019-04-30 12:04:27",
            "category": "HOURLY"
        }]
    }, {
        "park_Id": "tdc14p1007",
        "privateCar": [{
            "vacancy_type": "B",
            "vacancy": "1",
            "lastupdate": "2019-04-30 12:04:27",
            "category": "HOURLY"
        }]
    }, {
        "park_Id": "tdc14p1008",
        "privateCar": [{
            "vacancy_type": "B",
            "vacancy": "1",
            "lastupdate": "2019-04-30 12:04:30",
            "category": "HOURLY"
        }]
    }, {
        "park_Id": "tdc14p1012",
        "privateCar": [{
            "vacancy_type": "B",
            "vacancy": "0",
            "lastupdate": "2019-04-30 12:04:27",
            "category": "HOURLY"
        }]
    }, {
        "park_Id": "tdc14p1015",
        "privateCar": [{
            "vacancy_type": "B",
            "vacancy": "1",
            "lastupdate": "2019-04-30 12:04:24",
            "category": "HOURLY"
        }]
    }, {
        "park_Id": "tdc14p1016",
        "privateCar": [{
            "vacancy_type": "B",
            "vacancy": "1",
            "lastupdate": "2019-04-30 12:04:24",
            "category": "HOURLY"
        }]
    }, {
        "park_Id": "tdc14p1017",
        "privateCar": [{
            "vacancy_type": "B",
            "vacancy": "1",
            "lastupdate": "2019-04-30 12:04:24",
            "category": "HOURLY"
        }]
    }, {
        "park_Id": "tdc14p1022",
        "privateCar": [{
            "vacancy_type": "A",
            "vacancy": -1,
            "lastupdate": "2019-04-30 12:05:02",
            "category": "HOURLY"
        }]
    }, {
        "park_Id": "tdc14p1024",
        "privateCar": [{
            "vacancy_type": "A",
            "vacancy": -1,
            "lastupdate": "2019-04-30 12:05:02",
            "category": "HOURLY"
        }]
    }, {
        "park_Id": "tdc14p1030",
        "privateCar": [{
            "vacancy_type": "B",
            "vacancy": "1",
            "lastupdate": "2019-04-30 12:04:20",
            "category": "HOURLY"
        }]
    }, {
        "park_Id": "tdc14p1031",
        "privateCar": [{
            "vacancy_type": "B",
            "vacancy": "1",
            "lastupdate": "2019-04-30 12:04:20",
            "category": "HOURLY"
        }]
    }, {
        "park_Id": "tdc14p1032",
        "privateCar": [{
            "vacancy_type": "B",
            "vacancy": "0",
            "lastupdate": "2019-04-30 12:04:20",
            "category": "HOURLY"
        }]
    }, {
        "park_Id": "tdc14p1033",
        "privateCar": [{
            "vacancy_type": "B",
            "vacancy": "0",
            "lastupdate": "2019-04-30 12:04:20",
            "category": "HOURLY"
        }]
    }, {
        "park_Id": "tdc14p1034",
        "privateCar": [{
            "vacancy_type": "B",
            "vacancy": "1",
            "lastupdate": "2019-04-30 12:04:20",
            "category": "HOURLY"
        }]
    }, {
        "park_Id": "tdc14p1037",
        "privateCar": [{
            "vacancy_type": "B",
            "vacancy": "1",
            "lastupdate": "2019-04-30 12:04:17",
            "category": "HOURLY"
        }]
    }, {
        "park_Id": "tdc14p1050",
        "privateCar": [{
            "vacancy_type": "A",
            "vacancy": -1,
            "lastupdate": "2019-04-30 12:05:02",
            "category": "HOURLY"
        }]
    }, {
        "park_Id": "tdc14p2101",
        "privateCar": [{
            "vacancy_type": "B",
            "vacancy": "1",
            "lastupdate": "2019-04-30 12:04:17",
            "category": "HOURLY"
        }]
    }, {
        "park_Id": "tdc14p2104",
        "privateCar": [{
            "vacancy_type": "B",
            "vacancy": "1",
            "lastupdate": "2019-04-30 12:04:14",
            "category": "HOURLY"
        }]
    }, {
        "park_Id": "tdc14p2106",
        "privateCar": [{
            "vacancy_type": "B",
            "vacancy": "1",
            "lastupdate": "2019-04-30 12:04:14",
            "category": "HOURLY"
        }]
    }, {
        "park_Id": "tdc14p2111",
        "privateCar": [{
            "vacancy_type": "A",
            "vacancy": -1,
            "lastupdate": "2019-04-30 12:05:02",
            "category": "HOURLY"
        }]
    }, {
        "park_Id": "tdc14p2112",
        "privateCar": [{
            "vacancy_type": "A",
            "vacancy": -1,
            "lastupdate": "2019-04-30 12:05:02",
            "category": "HOURLY"
        }]
    }, {
        "park_Id": "tdc14p2116",
        "privateCar": [{
            "vacancy_type": "B",
            "vacancy": "1",
            "lastupdate": "2019-04-30 12:04:14",
            "category": "HOURLY"
        }]
    }, {
        "park_Id": "tdc14p2117",
        "privateCar": [{
            "vacancy_type": "B",
            "vacancy": "1",
            "lastupdate": "2019-04-30 12:04:17",
            "category": "HOURLY"
        }]
    }, {
        "park_Id": "tdc14p2118",
        "privateCar": [{
            "vacancy_type": "B",
            "vacancy": "0",
            "lastupdate": "2019-04-30 12:04:17",
            "category": "HOURLY"
        }]
    }, {
        "park_Id": "tdc14p2119",
        "privateCar": [{
            "vacancy_type": "B",
            "vacancy": "1",
            "lastupdate": "2019-04-30 12:04:11",
            "category": "HOURLY"
        }]
    }, {
        "park_Id": "tdc14p2120",
        "privateCar": [{
            "vacancy_type": "B",
            "vacancy": "1",
            "lastupdate": "2019-04-30 12:04:11",
            "category": "HOURLY"
        }]
    }, {
        "park_Id": "tdc14p2121",
        "privateCar": [{
            "vacancy_type": "B",
            "vacancy": "1",
            "lastupdate": "2019-04-30 12:04:11",
            "category": "HOURLY"
        }]
    }, {
        "park_Id": "tdc14p2123",
        "privateCar": [{
            "vacancy_type": "A",
            "vacancy": -1,
            "lastupdate": "2019-04-30 12:05:02",
            "category": "HOURLY"
        }]
    }, {
        "park_Id": "tdc14p3201",
        "privateCar": [{
            "vacancy_type": "B",
            "vacancy": "1",
            "lastupdate": "2019-04-30 12:04:11",
            "category": "HOURLY"
        }]
    }, {
        "park_Id": "tdc14p3204",
        "privateCar": [{
            "vacancy_type": "B",
            "vacancy": "1",
            "lastupdate": "2019-04-30 12:04:08",
            "category": "HOURLY"
        }]
    }, {
        "park_Id": "tdc14p3206",
        "privateCar": [{
            "vacancy_type": "B",
            "vacancy": "1",
            "lastupdate": "2019-04-30 12:04:08",
            "category": "HOURLY"
        }]
    }, {
        "park_Id": "tdc14p3214",
        "privateCar": [{
            "vacancy_type": "A",
            "vacancy": -1,
            "lastupdate": "2019-04-30 12:05:02",
            "category": "HOURLY"
        }]
    }, {
        "park_Id": "tdc14p3216",
        "privateCar": [{
            "vacancy_type": "B",
            "vacancy": "1",
            "lastupdate": "2019-04-30 12:04:08",
            "category": "HOURLY"
        }]
    }, {
        "park_Id": "tdc14p3301",
        "privateCar": [{
            "vacancy_type": "B",
            "vacancy": "1",
            "lastupdate": "2019-04-30 12:04:08",
            "category": "HOURLY"
        }]
    }, {
        "park_Id": "tdc14p3303",
        "privateCar": [{
            "vacancy_type": "B",
            "vacancy": "1",
            "lastupdate": "2019-04-30 12:04:05",
            "category": "HOURLY"
        }]
    }, {
        "park_Id": "tdc14p3304",
        "privateCar": [{
            "vacancy_type": "B",
            "vacancy": "1",
            "lastupdate": "2019-04-30 12:04:05",
            "category": "HOURLY"
        }]
    }, {
        "park_Id": "tdc14p3306",
        "privateCar": [{
            "vacancy_type": "B",
            "vacancy": "1",
            "lastupdate": "2019-04-30 12:04:05",
            "category": "HOURLY"
        }]
    }, {
        "park_Id": "tdc14p3307",
        "privateCar": [{
            "vacancy_type": "B",
            "vacancy": "1",
            "lastupdate": "2019-04-30 12:04:05",
            "category": "HOURLY"
        }]
    }, {
        "park_Id": "tdc14p3309",
        "privateCar": [{
            "vacancy_type": "B",
            "vacancy": "1",
            "lastupdate": "2019-04-30 12:04:05",
            "category": "HOURLY"
        }]
    }, {
        "park_Id": "tdc14p3311",
        "privateCar": [{
            "vacancy_type": "B",
            "vacancy": "1",
            "lastupdate": "2019-04-30 12:04:30",
            "category": "HOURLY"
        }]
    }, {
        "park_Id": "tdc14p3431",
        "privateCar": [{
            "vacancy_type": "B",
            "vacancy": "1",
            "lastupdate": "2019-04-30 12:04:30",
            "category": "HOURLY"
        }]
    }, {
        "park_Id": "tdc14p3432",
        "privateCar": [{
            "vacancy_type": "B",
            "vacancy": "1",
            "lastupdate": "2019-04-30 12:04:30",
            "category": "HOURLY"
        }]
    }, {
        "park_Id": "tdc14p3433",
        "privateCar": [{
            "vacancy_type": "B",
            "vacancy": "1",
            "lastupdate": "2019-04-30 12:04:30",
            "category": "HOURLY"
        }]
    }, {
        "park_Id": "tdc14p3434",
        "privateCar": [{
            "vacancy_type": "B",
            "vacancy": "1",
            "lastupdate": "2019-04-30 12:04:34",
            "category": "HOURLY"
        }]
    }, {
        "park_Id": "tdc14p3435",
        "privateCar": [{
            "vacancy_type": "B",
            "vacancy": "1",
            "lastupdate": "2019-04-30 12:04:34",
            "category": "HOURLY"
        }]
    }, {
        "park_Id": "tdc14p3436",
        "privateCar": [{
            "vacancy_type": "B",
            "vacancy": "1",
            "lastupdate": "2019-04-30 12:04:34",
            "category": "HOURLY"
        }]
    }, {
        "park_Id": "tdc14p3441",
        "privateCar": [{
            "vacancy_type": "B",
            "vacancy": "1",
            "lastupdate": "2019-04-30 12:04:34",
            "category": "HOURLY"
        }]
    }, {
        "park_Id": "tdc14p3443",
        "privateCar": [{
            "vacancy_type": "B",
            "vacancy": "1",
            "lastupdate": "2019-04-30 12:04:34",
            "category": "HOURLY"
        }]
    }, {
        "park_Id": "tdc14p3444",
        "privateCar": [{
            "vacancy_type": "B",
            "vacancy": "1",
            "lastupdate": "2019-04-30 12:04:37",
            "category": "HOURLY"
        }]
    }, {
        "park_Id": "tdc14p3445",
        "privateCar": [{
            "vacancy_type": "B",
            "vacancy": "1",
            "lastupdate": "2019-04-30 12:04:37",
            "category": "HOURLY"
        }]
    }, {
        "park_Id": "tdc14p3503",
        "privateCar": [{
            "vacancy_type": "A",
            "vacancy": -1,
            "lastupdate": "2019-04-30 12:05:02",
            "category": "HOURLY"
        }]
    }, {
        "park_Id": "tdc14p3512",
        "privateCar": [{
            "vacancy_type": "B",
            "vacancy": "1",
            "lastupdate": "2019-04-30 12:04:37",
            "category": "HOURLY"
        }]
    }, {
        "park_Id": "tdc14p3519",
        "privateCar": [{
            "vacancy_type": "B",
            "vacancy": "1",
            "lastupdate": "2019-04-30 12:04:37",
            "category": "HOURLY"
        }]
    }, {
        "park_Id": "tdc14p3520",
        "privateCar": [{
            "vacancy_type": "B",
            "vacancy": "1",
            "lastupdate": "2019-04-30 12:04:40",
            "category": "HOURLY"
        }]
    }, {
        "park_Id": "tdc14p3521",
        "privateCar": [{
            "vacancy_type": "B",
            "vacancy": "1",
            "lastupdate": "2019-04-30 12:04:40",
            "category": "HOURLY"
        }]
    }, {
        "park_Id": "tdc14p3522",
        "privateCar": [{
            "vacancy_type": "B",
            "vacancy": "1",
            "lastupdate": "2019-04-30 12:04:40",
            "category": "HOURLY"
        }]
    }, {
        "park_Id": "tdc14p3526",
        "privateCar": [{
            "vacancy_type": "A",
            "vacancy": -1,
            "lastupdate": "2019-04-30 12:05:02",
            "category": "HOURLY"
        }]
    }, {
        "park_Id": "tdc14p3527",
        "privateCar": [{
            "vacancy_type": "B",
            "vacancy": "1",
            "lastupdate": "2019-04-30 12:04:40",
            "category": "HOURLY"
        }]
    }, {
        "park_Id": "tdc14p3554",
        "privateCar": [{
            "vacancy_type": "B",
            "vacancy": "1",
            "lastupdate": "2019-04-30 12:04:43",
            "category": "HOURLY"
        }]
    }, {
        "park_Id": "tdc14p4218",
        "privateCar": [{
            "vacancy_type": "A",
            "vacancy": -1,
            "lastupdate": "2019-04-30 12:05:02",
            "category": "HOURLY"
        }]
    }, {
        "park_Id": "tdc14p4219",
        "privateCar": [{
            "vacancy_type": "B",
            "vacancy": "1",
            "lastupdate": "2019-04-30 12:04:43",
            "category": "HOURLY"
        }]
    }, {
        "park_Id": "tdc14p4220",
        "privateCar": [{
            "vacancy_type": "B",
            "vacancy": "1",
            "lastupdate": "2019-04-30 12:04:43",
            "category": "HOURLY"
        }]
    }, {
        "park_Id": "tdc14p4222",
        "privateCar": [{
            "vacancy_type": "B",
            "vacancy": "1",
            "lastupdate": "2019-04-30 12:04:43",
            "category": "HOURLY"
        }]
    }, {
        "park_Id": "tdc14p4223",
        "privateCar": [{
            "vacancy_type": "B",
            "vacancy": "1",
            "lastupdate": "2019-04-30 12:04:46",
            "category": "HOURLY"
        }]
    }, {
        "park_Id": "tdc14p4225",
        "privateCar": [{
            "vacancy_type": "B",
            "vacancy": "1",
            "lastupdate": "2019-04-30 12:04:46",
            "category": "HOURLY"
        }]
    }, {
        "park_Id": "tdc14p4227",
        "privateCar": [{
            "vacancy_type": "B",
            "vacancy": "1",
            "lastupdate": "2019-04-30 12:04:46",
            "category": "HOURLY"
        }]
    }, {
        "park_Id": "tdc14p4235",
        "privateCar": [{
            "vacancy_type": "B",
            "vacancy": "1",
            "lastupdate": "2019-04-30 12:04:46",
            "category": "HOURLY"
        }]
    }, {
        "park_Id": "tdc14p4237",
        "privateCar": [{
            "vacancy_type": "B",
            "vacancy": "1",
            "lastupdate": "2019-04-30 12:04:46",
            "category": "HOURLY"
        }]
    }, {
        "park_Id": "tdc14p4239",
        "privateCar": [{
            "vacancy_type": "B",
            "vacancy": "1",
            "lastupdate": "2019-04-30 12:04:50",
            "category": "HOURLY"
        }]
    }, {
        "park_Id": "tdc14p4243",
        "privateCar": [{
            "vacancy_type": "B",
            "vacancy": "1",
            "lastupdate": "2019-04-30 12:04:50",
            "category": "HOURLY"
        }]
    }, {
        "park_Id": "tdc14p4246",
        "privateCar": [{
            "vacancy_type": "B",
            "vacancy": "1",
            "lastupdate": "2019-04-30 12:04:50",
            "category": "HOURLY"
        }]
    }, {
        "park_Id": "tdc14p4312",
        "privateCar": [{
            "vacancy_type": "B",
            "vacancy": "1",
            "lastupdate": "2019-04-30 12:04:50",
            "category": "HOURLY"
        }]
    }, {
        "park_Id": "tdc14p4320",
        "privateCar": [{
            "vacancy_type": "B",
            "vacancy": "1",
            "lastupdate": "2019-04-30 12:04:50",
            "category": "HOURLY"
        }]
    }, {
        "park_Id": "tdc14p4321",
        "privateCar": [{
            "vacancy_type": "B",
            "vacancy": "1",
            "lastupdate": "2019-04-30 12:04:53",
            "category": "HOURLY"
        }]
    }, {
        "park_Id": "tdc14p4322",
        "privateCar": [{
            "vacancy_type": "B",
            "vacancy": "0",
            "lastupdate": "2019-04-30 12:04:53",
            "category": "HOURLY"
        }]
    }, {
        "park_Id": "tdc14p4327",
        "privateCar": [{
            "vacancy_type": "B",
            "vacancy": "1",
            "lastupdate": "2019-04-30 12:04:53",
            "category": "HOURLY"
        }]
    }, {
        "park_Id": "tdc14p4328",
        "privateCar": [{
            "vacancy_type": "B",
            "vacancy": "1",
            "lastupdate": "2019-04-30 12:04:53",
            "category": "HOURLY"
        }]
    }, {
        "park_Id": "tdc14p4330",
        "privateCar": [{
            "vacancy_type": "B",
            "vacancy": "1",
            "lastupdate": "2019-04-30 12:04:53",
            "category": "HOURLY"
        }]
    }, {
        "park_Id": "tdc14p4332",
        "privateCar": [{
            "vacancy_type": "B",
            "vacancy": "1",
            "lastupdate": "2019-04-30 12:04:56",
            "category": "HOURLY"
        }]
    }, {
        "park_Id": "tdc14p4334",
        "privateCar": [{
            "vacancy_type": "B",
            "vacancy": "1",
            "lastupdate": "2019-04-30 12:04:56",
            "category": "HOURLY"
        }]
    }, {
        "park_Id": "tdc14p4335",
        "privateCar": [{
            "vacancy_type": "B",
            "vacancy": "1",
            "lastupdate": "2019-04-30 12:04:56",
            "category": "HOURLY"
        }]
    }, {
        "park_Id": "tdc14p4337",
        "privateCar": [{
            "vacancy_type": "B",
            "vacancy": "1",
            "lastupdate": "2019-04-30 12:04:56",
            "category": "HOURLY"
        }]
    }, {
        "park_Id": "tdc14p4341",
        "privateCar": [{
            "vacancy_type": "A",
            "vacancy": -1,
            "lastupdate": "2019-04-30 12:05:02",
            "category": "HOURLY"
        }]
    }, {
        "park_Id": "tdc14p4352",
        "privateCar": [{
            "vacancy_type": "B",
            "vacancy": "1",
            "lastupdate": "2019-04-30 12:04:59",
            "category": "HOURLY"
        }]
    }, {
        "park_Id": "tdc14p5128",
        "privateCar": [{
            "vacancy_type": "B",
            "vacancy": "1",
            "lastupdate": "2019-04-30 12:04:59",
            "category": "HOURLY"
        }]
    }, {
        "park_Id": "tdc14p5129",
        "privateCar": [{
            "vacancy_type": "B",
            "vacancy": "1",
            "lastupdate": "2019-04-30 12:04:59",
            "category": "HOURLY"
        }]
    }, {
        "park_Id": "tdc14p5131",
        "privateCar": [{
            "vacancy_type": "A",
            "vacancy": -1,
            "lastupdate": "2019-04-30 12:05:02",
            "category": "HOURLY"
        }]
    }, {
        "park_Id": "tdc14p5132",
        "privateCar": [{
            "vacancy_type": "B",
            "vacancy": "1",
            "lastupdate": "2019-04-30 12:04:59",
            "category": "HOURLY"
        }]
    }, {
        "park_Id": "tdc14p5133",
        "privateCar": [{
            "vacancy_type": "A",
            "vacancy": -1,
            "lastupdate": "2019-04-30 12:05:02",
            "category": "HOURLY"
        }]
    }, {
        "park_Id": "tdc14p5135",
        "privateCar": [{
            "vacancy_type": "B",
            "vacancy": "1",
            "lastupdate": "2019-04-30 12:05:02",
            "category": "HOURLY"
        }]
    }, {
        "park_Id": "tdc14p5136",
        "privateCar": [{
            "vacancy_type": "B",
            "vacancy": "1",
            "lastupdate": "2019-04-30 12:05:02",
            "category": "HOURLY"
        }]
    }, {
        "park_Id": "tdc14p5137",
        "privateCar": [{
            "vacancy_type": "B",
            "vacancy": "0",
            "lastupdate": "2019-04-30 12:05:02",
            "category": "HOURLY"
        }]
    }, {
        "park_Id": "tdc14p5411",
        "privateCar": [{
            "vacancy_type": "A",
            "vacancy": -1,
            "lastupdate": "2019-04-30 12:05:02",
            "category": "HOURLY"
        }]
    }, {
        "park_Id": "tdc14p5419",
        "privateCar": [{
            "vacancy_type": "B",
            "vacancy": "1",
            "lastupdate": "2019-04-30 12:03:06",
            "category": "HOURLY"
        }]
    }, {
        "park_Id": "tdc14p5421",
        "privateCar": [{
            "vacancy_type": "B",
            "vacancy": "1",
            "lastupdate": "2019-04-30 12:03:06",
            "category": "HOURLY"
        }]
    }, {
        "park_Id": "tdc14p5528",
        "privateCar": [{
            "vacancy_type": "B",
            "vacancy": "1",
            "lastupdate": "2019-04-30 12:03:06",
            "category": "HOURLY"
        }]
    }, {
        "park_Id": "tdc14p5532",
        "privateCar": [{
            "vacancy_type": "B",
            "vacancy": "1",
            "lastupdate": "2019-04-30 12:03:06",
            "category": "HOURLY"
        }]
    }, {
        "park_Id": "tdc14p5534",
        "privateCar": [{
            "vacancy_type": "B",
            "vacancy": "1",
            "lastupdate": "2019-04-30 12:03:06",
            "category": "HOURLY"
        }]
    }, {
        "park_Id": "tdc14p5535",
        "privateCar": [{
            "vacancy_type": "B",
            "vacancy": "1",
            "lastupdate": "2019-04-30 12:03:09",
            "category": "HOURLY"
        }]
    }, {
        "park_Id": "tdc14p5727",
        "privateCar": [{
            "vacancy_type": "B",
            "vacancy": "1",
            "lastupdate": "2019-04-30 12:03:09",
            "category": "HOURLY"
        }]
    }, {
        "park_Id": "tdc14p5904",
        "privateCar": [{
            "vacancy_type": "B",
            "vacancy": "1",
            "lastupdate": "2019-04-30 12:03:09",
            "category": "HOURLY"
        }]
    }, {
        "park_Id": "tdc14p6401",
        "privateCar": [{
            "vacancy_type": "B",
            "vacancy": "1",
            "lastupdate": "2019-04-30 12:03:09",
            "category": "HOURLY"
        }]
    }, {
        "park_Id": "tdc14p6601",
        "privateCar": [{
            "vacancy_type": "B",
            "vacancy": "1",
            "lastupdate": "2019-04-30 12:03:09",
            "category": "HOURLY"
        }]
    }, {
        "park_Id": "tdc14p6602",
        "privateCar": [{
            "vacancy_type": "B",
            "vacancy": "1",
            "lastupdate": "2019-04-30 12:03:13",
            "category": "HOURLY"
        }]
    }, {
        "park_Id": "tdc14p6604",
        "privateCar": [{
            "vacancy_type": "B",
            "vacancy": "1",
            "lastupdate": "2019-04-30 12:03:13",
            "category": "HOURLY"
        }]
    }, {
        "park_Id": "tdc14p6605",
        "privateCar": [{
            "vacancy_type": "B",
            "vacancy": "1",
            "lastupdate": "2019-04-30 12:03:13",
            "category": "HOURLY"
        }]
    }, {
        "park_Id": "tdc14p6606",
        "privateCar": [{
            "vacancy_type": "B",
            "vacancy": "1",
            "lastupdate": "2019-04-30 12:03:13",
            "category": "HOURLY"
        }]
    }, {
        "park_Id": "tdc14p6607",
        "privateCar": [{
            "vacancy_type": "B",
            "vacancy": "1",
            "lastupdate": "2019-04-30 12:03:13",
            "category": "HOURLY"
        }]
    }, {
        "park_Id": "tdc14p6608",
        "privateCar": [{
            "vacancy_type": "B",
            "vacancy": "1",
            "lastupdate": "2019-04-30 12:03:16",
            "category": "HOURLY"
        }]
    }, {
        "park_Id": "tdc14p6610",
        "privateCar": [{
            "vacancy_type": "B",
            "vacancy": "1",
            "lastupdate": "2019-04-30 12:03:16",
            "category": "HOURLY"
        }]
    }, {
        "park_Id": "tdc14p6611",
        "privateCar": [{
            "vacancy_type": "B",
            "vacancy": "1",
            "lastupdate": "2019-04-30 12:03:16",
            "category": "HOURLY"
        }]
    }, {
        "park_Id": "tdc14p6620",
        "privateCar": [{
            "vacancy_type": "B",
            "vacancy": "0",
            "lastupdate": "2019-04-30 12:03:16",
            "category": "HOURLY"
        }]
    }, {
        "park_Id": "tdc14p6639",
        "privateCar": [{
            "vacancy_type": "B",
            "vacancy": "1",
            "lastupdate": "2019-04-30 12:03:16",
            "category": "HOURLY"
        }]
    }, {
        "park_Id": "tdc14p6640",
        "privateCar": [{
            "vacancy_type": "B",
            "vacancy": "1",
            "lastupdate": "2019-04-30 12:03:19",
            "category": "HOURLY"
        }]
    }, {
        "park_Id": "tdc14p6641",
        "privateCar": [{
            "vacancy_type": "B",
            "vacancy": "1",
            "lastupdate": "2019-04-30 12:03:19",
            "category": "HOURLY"
        }]
    }, {
        "park_Id": "tdc14p6645",
        "privateCar": [{
            "vacancy_type": "B",
            "vacancy": "0",
            "lastupdate": "2019-04-30 12:03:19",
            "category": "HOURLY"
        }]
    }, {
        "park_Id": "tdc14p6728",
        "privateCar": [{
            "vacancy_type": "B",
            "vacancy": "1",
            "lastupdate": "2019-04-30 12:03:19",
            "category": "HOURLY"
        }]
    }, {
        "park_Id": "tdc14p6729",
        "privateCar": [{
            "vacancy_type": "B",
            "vacancy": "1",
            "lastupdate": "2019-04-30 12:03:19",
            "category": "HOURLY"
        }]
    }, {
        "park_Id": "tdc14p6730",
        "privateCar": [{
            "vacancy_type": "B",
            "vacancy": "1",
            "lastupdate": "2019-04-30 12:03:22",
            "category": "HOURLY"
        }]
    }, {
        "park_Id": "tdc14p7542",
        "privateCar": [{
            "vacancy_type": "B",
            "vacancy": "1",
            "lastupdate": "2019-04-30 12:03:22",
            "category": "HOURLY"
        }]
    }, {
        "park_Id": "tdc14p7622",
        "privateCar": [{
            "vacancy_type": "B",
            "vacancy": "1",
            "lastupdate": "2019-04-30 12:03:22",
            "category": "HOURLY"
        }]
    }, {
        "park_Id": "tdc14p7623",
        "privateCar": [{
            "vacancy_type": "B",
            "vacancy": "1",
            "lastupdate": "2019-04-30 12:03:22",
            "category": "HOURLY"
        }]
    }, {
        "park_Id": "tdc14p7629",
        "privateCar": [{
            "vacancy_type": "B",
            "vacancy": "1",
            "lastupdate": "2019-04-30 12:03:22",
            "category": "HOURLY"
        }]
    }, {
        "park_Id": "tdc14p7632",
        "privateCar": [{
            "vacancy_type": "B",
            "vacancy": "1",
            "lastupdate": "2019-04-30 12:03:26",
            "category": "HOURLY"
        }]
    }, {
        "park_Id": "tdc14p7633",
        "privateCar": [{
            "vacancy_type": "B",
            "vacancy": "1",
            "lastupdate": "2019-04-30 12:03:26",
            "category": "HOURLY"
        }]
    }, {
        "park_Id": "tdc14p7636",
        "privateCar": [{
            "vacancy_type": "B",
            "vacancy": "1",
            "lastupdate": "2019-04-30 12:03:26",
            "category": "HOURLY"
        }]
    }, {
        "park_Id": "tdc14p7732",
        "privateCar": [{
            "vacancy_type": "B",
            "vacancy": "1",
            "lastupdate": "2019-04-30 12:03:26",
            "category": "HOURLY"
        }]
    }, {
        "park_Id": "tdc14p7733",
        "privateCar": [{
            "vacancy_type": "B",
            "vacancy": "1",
            "lastupdate": "2019-04-30 12:03:26",
            "category": "HOURLY"
        }]
    }, {
        "park_Id": "tdc14p7737",
        "privateCar": [{
            "vacancy_type": "B",
            "vacancy": "0",
            "lastupdate": "2019-04-30 12:03:29",
            "category": "HOURLY"
        }]
    }, {
        "park_Id": "tdc14p7739",
        "privateCar": [{
            "vacancy_type": "B",
            "vacancy": "1",
            "lastupdate": "2019-04-30 12:03:29",
            "category": "HOURLY"
        }]
    }, {
        "park_Id": "tdc14p7740",
        "privateCar": [{
            "vacancy_type": "B",
            "vacancy": "1",
            "lastupdate": "2019-04-30 12:03:29",
            "category": "HOURLY"
        }]
    }, {
        "park_Id": "tdc14p7742",
        "privateCar": [{
            "vacancy_type": "B",
            "vacancy": "1",
            "lastupdate": "2019-04-30 12:03:29",
            "category": "HOURLY"
        }]
    }, {
        "park_Id": "tdc14p8423",
        "privateCar": [{
            "vacancy_type": "B",
            "vacancy": "1",
            "lastupdate": "2019-04-30 12:03:29",
            "category": "HOURLY"
        }]
    }, {
        "park_Id": "tdc14p8424",
        "privateCar": [{
            "vacancy_type": "B",
            "vacancy": "1",
            "lastupdate": "2019-04-30 12:03:32",
            "category": "HOURLY"
        }]
    }, {
        "park_Id": "tdc14p8426",
        "privateCar": [{
            "vacancy_type": "B",
            "vacancy": "1",
            "lastupdate": "2019-04-30 12:03:32",
            "category": "HOURLY"
        }]
    }, {
        "park_Id": "tdc14p8428",
        "privateCar": [{
            "vacancy_type": "B",
            "vacancy": "1",
            "lastupdate": "2019-04-30 12:03:32",
            "category": "HOURLY"
        }]
    }, {
        "park_Id": "tdc14p8502",
        "privateCar": [{
            "vacancy_type": "B",
            "vacancy": "1",
            "lastupdate": "2019-04-30 12:03:32",
            "category": "HOURLY"
        }]
    }, {
        "park_Id": "tdc14p8511",
        "privateCar": [{
            "vacancy_type": "B",
            "vacancy": "1",
            "lastupdate": "2019-04-30 12:03:32",
            "category": "HOURLY"
        }]
    }, {
        "park_Id": "tdc21p1",
        "privateCar": [{
            "vacancy_type": "B",
            "vacancy": "1",
            "lastupdate": "2019-04-29 12:57:55",
            "category": "HOURLY"
        }]
    }, {
        "park_Id": "tdstt2p1",
        "privateCar": [{
            "vacancy_type": "A",
            "vacancy": "42",
            "lastupdate": "2019-04-30 12:05:02",
            "category": "HOURLY"
        }]
    }, {
        "park_Id": "tdstt2p2",
        "privateCar": [{
            "vacancy_type": "A",
            "vacancy": "69",
            "lastupdate": "2019-04-30 12:05:02",
            "category": "HOURLY"
        }]
    }, {
        "park_Id": "tdstt3p1",
        "privateCar": [{
            "vacancy_type": "A",
            "vacancy": "15",
            "lastupdate": "2019-04-30 12:05:01",
            "category": "HOURLY"
        }]
    }, {
        "park_Id": "tdstt5p1",
        "privateCar": [{
            "vacancy_type": "A",
            "vacancy": "49",
            "lastupdate": "2019-04-30 12:05:01",
            "category": "HOURLY"
        }]
    }, {
        "park_Id": "tdstt7p1",
        "privateCar": [{
            "vacancy_type": "A",
            "vacancy": "16",
            "lastupdate": "2019-04-30 10:54:53",
            "category": "HOURLY"
        }]
    }, {
        "park_Id": "tdstt8p1",
        "privateCar": [{
            "vacancy_type": "A",
            "vacancy": "52",
            "lastupdate": "2019-04-30 12:05:01",
            "category": "HOURLY"
        }]
    }]
}